name="Brainslugs-Tweaked"
tags={
	"Balance"
	"Events"
	"Fixes"
	"Gameplay"
}
picture="brainslugs.png"
supported_version="2.7.*"
path="C:/Users/Alexa/Documents/Paradox Interactive/Stellaris/mod/brainslugstweaked"
remote_file_id="1616507363"